R00112
R00558
R00559
R00576
R00626
R00638
R00683
R00697
R00732
R00864
R00870
R00011
R00509
R00612
R00747
R00768
R00796
R00831
R00866
R00909
R00030
R00174
R00266
R00427
R00439
R00534
R00577
R00603
R00644
R00693
R00771
R00885
R00901
R01013
R01016
R00038
R00157
R00159
R00177
R00295
R00494
R00502
R00524
R00611
R00713
R00820
R00867
R00939
R00068
R00097
R00240
R00287
R00320
R00464
R00468
R00485
R00510
R00606
R00655
R00670
R00672
R00694
R00759
R00780
R00788
R00806
R00835
R00840
R00844
R00853
R00929
R00940
R00108
R00119
R00199
R00292
R00481
R00636
R00726
R00748
R00961
R00267
R00313
R00716
R00895
R00289
R00795
R00943
R00985
R00094
R00301
R00337
R00430
R00564
R00616
R00659
R00711
R00868
R00911
R01012
R00025
R00079
R00098
R00232
R00367
R00373
R00569
R00574
R00587
R00777
R00027
R00138
R00278
R00280
R00281
R00285
R00415
R00433
R00463
R00505
R00513
R00537
R00572
R00658
R00704
R00807
R00818
R00892
R00908
R00919
R00944
R01004
R00210
R00234
R00270
R00296
R00303
R00350
R00408
R00461
R00679
R00754
R00970
R00224
R00328
R00501
R00516
R00737
R00088
R00116
R00171
R00286
R00666
R00712
R00786
R00797
R00857
R00874
R00179
R00459
R00776
R00839
R01001
R00200
R00214
R00221
R00316
R00323
R00474
R00486
R00541
R00597
R00751
R00753
R00964
R00133
R00239
R00354
R00404
R00565
R00585
R00897
R00055
R00183
R00310
R00319
R00324
R00346
R00355
R00358
R00444
R00477
R00787
R00982
R00995
R00473
R00608
R00065
R00185
R00256
R00329
R00500
R00898
R00903
R00986
R00019
R00036
R00071
R00134
R00219
R00413
R00441
R00455
R00460
R00555
R00738
R00764
R00850
R01002
R00047
R00147
R00345
R00579
R00610
R00740
R00767
R01014
R00041
R00242
R00489
R00517
R00640
R00665
R00900
R00926
R00021
R00049
R00050
R00101
R00251
R00297
R00331
R00819
R00827
R00859
R00894
R00143
R00312
R00385
R00605
R00620
R00641
R00717
R00773
R00821
R00849
R00862
R00889
R00945
R00971
R00979
R00984
R00999
R00218
R00279
R00410
R00639
R00089
R00220
R00380
R00447
R00514
R00544
R00595
R00660
R00927
R00031
R00035
R00054
R00061
R00092
R00121
R00145
R00258
R00282
R00306
R00391
R00412
R00456
R00484
R00529
R00531
R00545
R00588
R00598
R00633
R00688
R00724
R00803
R00902
R00955
R00002
R00075
R00375
R00431
R00453
R00488
R00622
R00634
R00635
R00725
R00925
R00969
R00086
R00184
R00283
R00609
R00811
R00978
R00476
R00511
R00560
R00721
R00739
R00856
R00967
R00491
R00549
R00615
R00947
R00016
R00039
R00046
R00100
R00113
R00144
R00228
R00276
R00417
R00434
R00454
R00618
R00631
R00674
R00775
R00790
R00814
R00828
R00838
R00912
R00931
R00946
R00997
R00010
R00059
R00107
R00188
R00230
R00394
R00774
R00825
R00869
R00890
R01008
R00117
R00142
R00307
R00429
R00449
R00483
R00896
R00130
R00223
R00284
R00383
R00422
R00436
R00550
R00645
R00646
R00699
R00708
R00728
R00834
R00882
R00937
R00965
R00972
R01006
R00033
R00361
R00478
R00067
R00070
R00082
R00087
R00186
R00209
R00237
R00248
R00325
R00342
R00347
R00397
R00402
R00458
R00465
R00602
R00632
R00669
R00772
R00809
R00949
R00956
R00994
R00370
R00621
R00680
R00720
R00935
R00084
R00115
R00154
R00309
R00332
R00440
R00662
R00959
R00052
R00175
R00180
R00249
R00352
R00470
R00663
R00689
R00766
R00037
R00083
R00103
R00155
R00260
R00268
R00314
R00590
R00703
R00750
R00812
R00813
R00824
R00860
R00974
R00102
R00170
R00189
R00203
R00208
R00245
R00246
R00290
R00376
R00400
R00661
R00682
R00731
R00782
R00802
R00858
R00865
R00942
R01010
R00048
R00123
R00374
R00521
R00591
R00607
R00671
R01011
R00131
R00336
R00357
R00362
R00416
R00745
R00311
R00363
R00891
R00975
R00001
R00012
R00080
R00244
R00482
R00722
R00845
R00861
R00923
R00963
R00161
R00369
R00495
R00506
R00625
R00953
R00135
R00264
R00360
R00398
R00419
R00518
R00552
R00578
R00848
R00941
R00028
R00111
R00156
R00202
R00339
R00349
R00451
R00457
R00932
R00990
R00206
R00207
R00262
R00525
R00677
R00692
R00696
R00710
R00746
R00973
R01018
R00158
R00160
R00211
R00288
R00291
R00654
R00784
R00799
R00854
R01007
R00575
R00837
R00022
R00042
R00104
R00150
R00243
R00479
R00480
R00592
R00719
R00833
R00148
R00192
R00257
R00317
R00344
R00356
R00425
R00428
R00443
R00554
R00643
R00678
R00804
R00832
R00023
R00213
R00269
R00340
R00450
R00530
R00546
R00664
R00769
R00778
R00842
R00928
R00173
R00190
R00372
R00396
R00493
R00540
R00637
R00668
R00462
R00512
R00701
R00752
R01009
R00063
R00195
R00321
R00333
R00424
R00547
R00698
R00727
R00743
R00816
R00875
R00878
R00920
R00014
R00109
R00128
R00132
R00141
R00322
R00348
R00351
R00378
R00403
R00475
R00497
R00499
R00515
R00522
R00532
R00539
R00563
R00630
R00652
R00715
R00829
R00886
R00921
R00938
R01000
R00217
R00432
R00594
R00686
R00707
R00851
R00918
R00056
R00062
R00126
R00205
R00335
R00382
R00656
R00676
R00783
R00981
R00005
R00009
R00043
R00069
R00072
R00073
R00120
R00122
R00165
R00166
R00178
R00368
R00405
R00629
R00706
R00730
R00742
R00871
R00884
R00930
R00933
R00954
R00980
R00136
R00168
R00197
R00204
R00395
R00551
R00593
R00657
R00700
R00887
R00966
R00989
R01017
R00008
R00057
R00162
R00201
R00567
R00744
R00105
R00140
R00153
R00169
R00181
R00389
R00393
R00469
R00571
R00624
R00702
R00791
R00877
R00915
R00922
R00957
R00991
R00996
R00096
R00193
R00300
R00384
R00390
R00527
R00557
R00581
R00650
R00763
R00873
R00906
R01003
R00078
R00212
R00381
R00667
R00735
R00968
R00015
R00085
R00090
R00093
R00191
R00198
R00492
R00533
R00561
R00793
R00988
R01005
R00471
R00496
R00535
R00051
R00081
R00114
R00151
R00275
R00318
R00536
R00614
R00705
R00756
R00880
R00003
R00040
R00231
R00353
R00498
R00589
R00617
R00628
R00723
R00734
R00794
R00060
R00076
R00099
R00176
R00250
R00406
R00553
R00627
R00649
R00675
R00924
R00934
R00127
R00326
R00341
R00718
R00024
R00044
R00058
R00371
R00409
R00418
R00426
R00490
R00904
R00952
R00004
R00106
R00330
R00467
R00504
R00562
R00568
R00623
R00741
R00987
R00252
R00917
R00029
R00034
R00139
R00225
R00226
R00227
R00437
R00613
R00642
R00651
R00863
R00910
R00018
R00163
R00294
R00304
R00411
R00583
R00905
R00907
R00951
R00013
R00487
R00580
R00876
R00077
R00238
R00438
R00872
R00194
R00235
R00334
R00601
R00733
R00808
R00823
R00847
R00998
R00020
R00053
R00167
R00528
R00538
R00548
R00619
R00691
R00757
R00888
R00074
R00095
R00229
R00263
R00265
R00302
R00379
R00420
R00435
R00566
R00648
R00729
R00749
R00817
R00914
R00215
R00216
R00273
R00399
R00503
R00523
R00685
R00091
R00247
R00388
R00448
R00573
R00582
R00584
R00687
R00736
R00883
R00064
R00124
R00254
R00308
R00392
R00407
R00570
R00600
R00755
R00893
R00899
R00233
R00414
R00681
R00765
R00960
R00992
R00152
R00508
R00110
R00182
R00255
R00305
R00315
R00377
R00423
R00466
R00520
R00526
R00556
R00596
R00673
R00695
R00789
R00798
R00815
R00843
R00852
R00017
R00045
R00137
R00172
R00187
R00222
R00253
R00298
R00327
R00359
R00421
R00452
R00519
R00586
R00714
R00801
R00006
R00007
R00066
R00261
R00770
R00822
R00826
R00913
R00936
R00977
R00366
R00387
R00442
R00446
R00507
R00684
R00830
R00962
R01015
R00032
R00129
R00149
R00196
R00271
R00277
R00401
R00472
R00543
R00779
R00881
R00950
R00259
R00272
R00709
R00758
R00836
R00026
R00293
R00762
R00810
R00855
R00916
R00948
R00983
R00118
R00146
R00338
R00343
R00365
R00604
R00761
R00785
R00805
R00841
R00241
R00274
R00364
R00445
R00653
R00760
R00781
R00125
R00164
R00236
R00299
R00386
R00542
R00599
R00647
R00690
R00792
R00800
R00846
R00879
R00958
R00976
R00993
